{
"com.badlogic.gdx.graphics.g2d.BitmapFont": {
	"FredokaOne-Regular": {
		"file": "FredokaOne-Regular.fnt",
		"scaledSize": -1,
		"markupEnabled": false,
		"flip": false
	}
},
"com.badlogic.gdx.graphics.Color": {
	"Dark": {
		"r": 0.7137255,
		"g": 0.5372549,
		"b": 0.38431373,
		"a": 1
	},
	"Light": {
		"r": 0.9529412,
		"g": 0.95686275,
		"b": 0.90588236,
		"a": 1
	},
	"White": {
		"r": 1,
		"g": 1,
		"b": 1,
		"a": 1
	}
},
"com.badlogic.gdx.scenes.scene2d.ui.Button$ButtonStyle": {
	"default": {
		"up": "button_up",
		"down": "button_down"
	}
},
"com.badlogic.gdx.scenes.scene2d.ui.Label$LabelStyle": {
	"default": {
		"font": "FredokaOne-Regular",
		"fontColor": "Light"
	},
	"dark": {
		"parent": "default",
		"fontColor": "Dark"
	}
},
"com.badlogic.gdx.scenes.scene2d.ui.ProgressBar$ProgressBarStyle": {
	"default-horizontal": {
		"background": "progress_bar_background",
		"knob": "progress_bar_knob",
		"knobBefore": "progress_bar_filled",
		"knobAfter": "progress_bar_empty"
	}
},
"com.badlogic.gdx.scenes.scene2d.ui.TextButton$TextButtonStyle": {
	"default": {
		"font": "FredokaOne-Regular",
		"fontColor": "Dark",
		"up": "button_up",
		"down": "button_down"
	}
},
"com.badlogic.gdx.scenes.scene2d.ui.TextTooltip$TextTooltipStyle": {
	"default": {
		"label": "default"
	}
},
"com.badlogic.gdx.scenes.scene2d.ui.Window$WindowStyle": {
	"default": {
		"background": "window",
		"titleFont": "FredokaOne-Regular",
		"titleFontColor": "Light"
	},
	"shadowed": {
		"parent": "default",
		"stageBackground": "shadow"
	},
	"speech": {
		"parent": "default",
		"background": "speech_balloon"
	},
	"photo": {
		"parent": "default",
		"background": "photo"
	}
}
}